Topic Modeling in R Studio
…
```
## [1] "double"
```
]
Let's try again!
.tiny-code[

```r
meta_theta_df<-left_join(mydata, covid_documents_wide, by=c("index" = "document"))
meta_theta_df
```

```
## # A tibble: 1,500 x 10
##     index date       source.domain    originaltext text      X_1     X_2     X_3
##     <dbl> <date>     <chr>            <chr>        <chr>   <dbl>   <dbl>   <dbl>
##  1  98474 2021-11-21 foxnews.com      chicago may~ chic~ 0.279   0.716   0.00162
##  2  23319 2021-07-29 foxnews.com      randi weing~ rand~ 0.00162 0.00162 0.894  
##  3 144569 2021-04-16 dailywire.com    pfizer ceo:~ pfiz~ 0.00139 0.00139 0.00139
##  4  38059 2021-08-26 abc13.com        texas a&m r~ texa~ 0.758   0.174   0.0638 
##  5  97919 2021-11-28 silive.com       nyc civil s~ nyc ~ 0.00188 0.992   0.00188
##  6 131938 2021-03-12 fox13news.com    american, u~ amer~ 0.00196 0.00196 0.00196
##  7  21368 2021-07-23 huffpost.com     ted cruz<U+~ ted ~ 0.00143 0.00143 0.00143
##  8 165309 2021-05-17 cnn.com          analysis: a~ anal~ 0.201   0.566   0.230  
##  9  25010 2021-07-14 patriotproject.~ az senate p~ az s~ 0.00162 0.00162 0.609  
## 10  76043 2021-10-25 reuters.com      u.s. to out~ u.s.~ 0.00121 0.213   0.00121
## # ... with 1,490 more rows, and 2 more variables: X_4 <dbl>, X_5 <dbl>
```
…
```r
topic_time_long <- topics_time %>%
  pivot_longer(!date, # long from date
               names_to = "topics", # names as topic
               values_to = "gamma") # values as gamma
topic_time_long
```

```
## # A tibble: 1,785 x 3
##    date       topics   gamma
##    <date>     <chr>    <dbl>
##  1 2021-01-01 X_1    0.138  
##  2 2021-01-01 X_2    0.135  
##  3 2021-01-01 X_3    0.0345 
##  4 2021-01-01 X_4    0.266  
##  5 2021-01-01 X_5    0.427  
##  6 2021-01-02 X_1    0.00309
##  7 2021-01-02 X_2    0.163  
##  8 2021-01-02 X_3    0.336  
##  9 2021-01-02 X_4    0.495  
## 10 2021-01-02 X_5    0.00309
## # ... with 1,775 more rows
```
…
